%!Adobe-FontList 1.19
%Locale:0x416

%BeginFont
Handler:DirectoryHandler
FontType:TrueType
FontName:Calibri
FamilyName:Calibri
StyleName:Regular
FullName:Calibri
MenuName:Calibri
StyleBits:0
WritingScript:Roman
OutlineFileName:\\Servidor\2018\Alianza\AF_CATALOGO ALIZANDA\AF_CATALOGO ALIANZA_ALTERADO Folder\AF_CATALOGO ALIANZA_ALTERADO_15_11 Folder\Document fonts\calibri.ttf
DataFormat:sfntData
hasSVG:no
VariableFontType:NonVariableFont
FileLength:1572076
FileModTime:1523493248
WeightClass:400
WidthClass:5
AngleClass:0
NameArray:0,Mac,4,Calibri
NameArray:0,Win,1,Calibri
%EndFont

%BeginFont
Handler:DirectoryHandler
FontType:TrueType
FontName:Calibri-Bold
FamilyName:Calibri
StyleName:Bold
FullName:Calibri Bold
MenuName:Calibri
StyleBits:2
WritingScript:Roman
OutlineFileName:\\Servidor\2018\Alianza\AF_CATALOGO ALIZANDA\AF_CATALOGO ALIANZA_ALTERADO Folder\AF_CATALOGO ALIANZA_ALTERADO_15_11 Folder\Document fonts\calibrib.ttf
DataFormat:sfntData
hasSVG:no
VariableFontType:NonVariableFont
FileLength:1540504
FileModTime:1523493248
WeightClass:700
WidthClass:5
AngleClass:0
NameArray:0,Mac,4,Calibri Bold
NameArray:0,Win,1,Calibri
%EndFont

%BeginFont
Handler:DirectoryHandler
FontType:TrueType
FontName:Helvetica-CondLtObl
FamilyName:Helvetica-CondensedLight
StyleName:LightItalic
FullName:Helvetica-CondensedLight Oblique
MenuName:Helvetica-CondensedLight
StyleBits:1
WritingScript:Roman
OutlineFileName:\\Servidor\2018\Alianza\AF_CATALOGO ALIZANDA\AF_CATALOGO ALIANZA_ALTERADO Folder\AF_CATALOGO ALIANZA_ALTERADO_15_11 Folder\Document fonts\HelveticaCdLtObl.ttf
DataFormat:sfntData
hasSVG:no
VariableFontType:NonVariableFont
FileLength:46056
FileModTime:1035758584
WeightClass:300
WidthClass:7
AngleClass:0
NameArray:0,Mac,4,Helvetica-CondensedLight Oblique
NameArray:0,Win,1,Helvetica-CondensedLight
%EndFont

%BeginFont
Handler:DirectoryHandler
FontType:TrueType
FontName:Helvetica-CondensedLight
FamilyName:Helvetica-CondensedLight
StyleName:Light
FullName:Helvetica-CondensedLight
MenuName:Helvetica-CondensedLight
StyleBits:0
WritingScript:Roman
OutlineFileName:\\Servidor\2018\Alianza\AF_CATALOGO ALIZANDA\AF_CATALOGO ALIANZA_ALTERADO Folder\AF_CATALOGO ALIANZA_ALTERADO_15_11 Folder\Document fonts\HelveticaCdLt_0.ttf
DataFormat:sfntData
hasSVG:no
VariableFontType:NonVariableFont
FileLength:46020
FileModTime:1035758584
WeightClass:300
WidthClass:7
AngleClass:0
NameArray:0,Mac,4,Helvetica-CondensedLight
NameArray:0,Win,1,Helvetica-CondensedLight
%EndFont

%BeginFont
Handler:DirectoryHandler
FontType:Type1
FontName:HelveticaNeueCE-Black
FamilyName:Helvetica Neue CE 95 Black
StyleName:Regular
FullName:Helvetica Neue CE 95 Black
MenuName:Helvetica Neue CE 95 Black
StyleBits:0
WritingScript:Roman
OutlineFileName:\\Servidor\2018\Alianza\AF_CATALOGO ALIZANDA\AF_CATALOGO ALIANZA_ALTERADO Folder\AF_CATALOGO ALIANZA_ALTERADO_15_11 Folder\Document fonts\HelveticaNeueCE-Black_0.otf
DataFormat:sfntData
UsesStandardEncoding:yes
isCFF:yes
hasSVG:no
VariableFontType:NonVariableFont
FileLength:38664
FileModTime:1157787532
WeightClass:900
WidthClass:5
AngleClass:0
NameArray:0,Mac,4,Helvetica Neue CE 95 Black
NameArray:0,Win,1,Helvetica Neue CE 95 Black
%EndFont

%BeginFont
Handler:DirectoryHandler
FontType:Type1
FontName:MinionPro-Regular
FamilyName:Minion Pro
StyleName:Regular
FullName:Minion Pro
MenuName:Minion Pro
StyleBits:0
WritingScript:Roman
OutlineFileName:\\Servidor\2018\Alianza\AF_CATALOGO ALIZANDA\AF_CATALOGO ALIANZA_ALTERADO Folder\AF_CATALOGO ALIANZA_ALTERADO_15_11 Folder\Document fonts\MinionPro-Regular.otf
DataFormat:sfntData
UsesStandardEncoding:yes
isCFF:yes
hasSVG:no
VariableFontType:NonVariableFont
FileLength:218640
FileModTime:1361546180
WeightClass:400
WidthClass:5
AngleClass:0
DesignSize:110
NameArray:0,Mac,4,Minion Pro
NameArray:0,Win,1,Minion Pro
%EndFont

%BeginFont
Handler:DirectoryHandler
FontType:TrueType
FontName:Swiss721BT-ItalicCondensed
FamilyName:Swis721 Cn BT
StyleName:Italic
FullName:Swiss 721 Condensed Italic BT
MenuName:Swis721 Cn BT
StyleBits:1
WritingScript:Roman
OutlineFileName:\\Servidor\2018\Alianza\AF_CATALOGO ALIZANDA\AF_CATALOGO ALIANZA_ALTERADO Folder\AF_CATALOGO ALIANZA_ALTERADO_15_11 Folder\Document fonts\swissci.ttf
DataFormat:sfntData
hasSVG:no
VariableFontType:NonVariableFont
FileLength:37616
FileModTime:817736932
WeightClass:400
WidthClass:3
AngleClass:0
NameArray:0,Mac,4,Swiss 721 Condensed Italic BT
NameArray:0,Win,1,Swis721 Cn BT
%EndFont

%BeginFont
Handler:DirectoryHandler
FontType:TrueType
FontName:Swiss721BT-RomanCondensed
FamilyName:Swis721 Cn BT
StyleName:Roman
FullName:Swis721 Cn BT Roman
MenuName:Swis721 Cn BT
StyleBits:0
WritingScript:Roman
OutlineFileName:\\Servidor\2018\Alianza\AF_CATALOGO ALIZANDA\AF_CATALOGO ALIANZA_ALTERADO Folder\AF_CATALOGO ALIANZA_ALTERADO_15_11 Folder\Document fonts\tt0009m_.ttf
DataFormat:sfntData
hasSVG:no
VariableFontType:NonVariableFont
FileLength:41180
FileModTime:1457167510
WeightClass:400
WidthClass:3
AngleClass:0
NameArray:0,Mac,4,Swis721 Cn BT Roman
NameArray:0,Win,1,Swis721 Cn BT
%EndFont

%BeginFont
Handler:DirectoryHandler
FontType:TrueType
FontName:Swiss721BT-BoldCondensed
FamilyName:Swis721 Cn BT
StyleName:Bold
FullName:Swis721 Cn BT Bold
MenuName:Swis721 Cn BT
StyleBits:2
WritingScript:Roman
OutlineFileName:\\Servidor\2018\Alianza\AF_CATALOGO ALIZANDA\AF_CATALOGO ALIANZA_ALTERADO Folder\AF_CATALOGO ALIANZA_ALTERADO_15_11 Folder\Document fonts\tt0010m_.ttf
DataFormat:sfntData
hasSVG:no
VariableFontType:NonVariableFont
FileLength:41564
FileModTime:1457167510
WeightClass:700
WidthClass:3
AngleClass:0
NameArray:0,Mac,4,Swis721 Cn BT Bold
NameArray:0,Win,1,Swis721 Cn BT
%EndFont

%BeginFont
Handler:DirectoryHandler
FontType:TrueType
FontName:Swiss721BT-BlackCondensed
FamilyName:Swis721 BlkCn BT
StyleName:Black
FullName:Swis721 BlkCn BT Black
MenuName:Swis721 BlkCn BT
StyleBits:0
WritingScript:Roman
OutlineFileName:\\Servidor\2018\Alianza\AF_CATALOGO ALIZANDA\AF_CATALOGO ALIANZA_ALTERADO Folder\AF_CATALOGO ALIANZA_ALTERADO_15_11 Folder\Document fonts\tt0173m_.ttf
DataFormat:sfntData
hasSVG:no
VariableFontType:NonVariableFont
FileLength:42508
FileModTime:1457167510
WeightClass:400
WidthClass:3
AngleClass:0
NameArray:0,Mac,4,Swis721 BlkCn BT Black
NameArray:0,Win,1,Swis721 BlkCn BT
%EndFont

